Worksheet 4: Data Visualization
…
Formulate a question based on a dataset of your choice. That question should be something that would be appropriately answered by a bar chart. What is the question you want to explore?

What is the number of Boston women voters whose occupation is listed as a housewife by their birth country?

Now write the code to answer that question and use comments (#) to explain your thinking as you go.

data("BostonWomenVoters") #calls BostonWomenVoters dataset

housewife.by.country <- BostonWomenVoters %>%  #begins function housewife.by.country
  filter(Occupation == "Housewife") %>% #filters by occupation to show only housewives
  group_by(Country.of.Birth) %>% #groups by country of birth
  summarize(count = n()) %>% #counts the number of housewives by country
  print #prints the subset

# A tibble: 37 × 2
   Country.of.Birth    count
   <chr>               <int>
 1 Armenia                 1
 2 Armenia (Turkey)        1
 3 At sea                  1
 4 Austria                 1
 5 Azores                  1
 6 Belgium                 1
 7 British West Indies     9
 8 Canada                341
 9 Chile                   1
10 Danish West Indies      1
# ℹ 27 more rows
…
data("BostonWomenVoters")

BWV.Students.By.State <- BostonWomenVoters %>% filter(Occupation == "Student") %>% filter(Country.of.Birth == "United States")  %>% group_by(State.or.Province.of.Birth) %>% summarize(count = (State.or.Province.of.Birth)) %>% print()

Warning: Returning more (or less) than 1 row per `summarise()` group was deprecated in
dplyr 1.1.0.
ℹ Please use `reframe()` instead.
ℹ When switching from `summarise()` to `reframe()`, remember that `reframe()`
  always returns an ungrouped data frame and adjust accordingly.

`summarise()` has grouped output by 'State.or.Province.of.Birth'. You can
override using the `.groups` argument.

# A tibble: 22 × 2
# Groups:   State.or.Province.of.Birth [8]
   State.or.Province.of.Birth count        
   <chr>                      <chr>        
 1 Iowa                       Iowa         
 2 Maine                      Maine        
 3 Maine                      Maine        
 4 Maine                      Maine        
 5 Massachusetts              Massachusetts
 6 Massachusetts              Massachusetts
 7 Massachusetts              Massachusetts
 8 Massachusetts              Massachusetts
 9 Massachusetts              Massachusetts
10 Massachusetts              Massachusetts
# ℹ 12 more rows
…
